…
--- &twocol

*** =left

```r
# Apply function
all_coefs <- get_coefs(files) %>% 
  print(n =5)
```

```no-highlight
## # A tibble: 100 x 2
##       a     b
##   <dbl> <dbl>
## 1  3.12 0.794
## 2  2.64 0.800
## 3  1.95 0.828
## 4  3.08 0.755
## 5  1.07 0.922
## # ... with 95 more rows
```
…
