Data Analysis with R
…
        Data analysis with R

    Printing tibble

each column reports its type

only the first 10 rows and all columns that fit on screen are shown --> much easier to work with large data

if you want to change the number of rows (n) and columns (width) use print() and change the arguments:

print(iris_tbl, n = 2, width = Inf)  # = Inf shows all columns

## # A tibble: 150 x 5
##   Sepal.Length Sepal.Width Petal.Length Petal.Width Species
##          <dbl>       <dbl>        <dbl>       <dbl> <fct>  
## 1          5.1         3.5          1.4         0.2 setosa 
## 2          4.9         3            1.4         0.2 setosa 
## # ... with 148 more rows
…
