Data Analysis with R
…
        Data analysis with R

    Load the data (using your file path)

cpue <- read_csv("data/CPUE per age per area_2017-11-20 06_48_16.csv")
print(cpue, n = 5)  

## # A tibble: 801 x 17
##   Survey  Year Quarter  Area AphiaID Species Age_0 Age_1 Age_2 Age_3 Age_4
##   <chr>  <int>   <int> <int>   <int> <chr>   <dbl> <dbl> <dbl> <dbl> <dbl>
## 1 BITS    1991       1    24  126436 Gadus …     0 2.24   6.81  6.48  7.24
## 2 BITS    1991       1    25  126436 Gadus …     0 3.47  24.6  39.9  58.8 
## 3 BITS    1991       1    26  126436 Gadus …     0 8.79   8.52 38.1  29.6 
## 4 BITS    1991       1    27  126436 Gadus …     0 0      0     0     0   
## 5 BITS    1991       1    28  126436 Gadus …     0 0.173 25.8  42.5  34.5 
## # ... with 796 more rows, and 6 more variables: Age_5 <dbl>, Age_6 <dbl>,
## #   Age_7 <dbl>, Age_8 <dbl>, Age_9 <dbl>, Age_10 <dbl>
…
