Case study 1: Hydrographical dynamics in the Baltic Sea
…
This step repeats what we covered in lecture 7 (Data wrangling: transformations):

2.1 Depth measurements

If you consider aggregating your data over different depth ranges (e.g. surface, mid-layer, deepwater) or if you want to filter certain depths you should be aware of the most frequently sampled depth or the most common depth profiles taken (are mesurements taken every metre, every 5 metres?)

2.1.1 Frequencies of sampled depths

hydro %>%
 select(pres) %>%
 group_by(pres) %>%
 count()

## # A tibble: 1,193 x 2
## # Groups:   pres [1,193]
##     pres     n
##    <dbl> <int>
##  1 0      1524
##  2 0.200     4
##  3 0.400     1
##  4 0.500   282
##  5 0.570     1
##  6 0.600     4
##  7 0.700     3
##  8 0.800     8
##  9 0.900    25
## 10 1.00   1552
## # ... with 1,183 more rows
…
Sea surface conditions

# 1st, we get the appropriate water layer and calculate a mean per parameter
surf_lay <- hydro %>%
  filter(pres <=20) %>%
  group_by(cruise, station, date_time, fmonth) %>%
  summarise(
    temp = mean(temp, na.rm = TRUE),
    sal = mean(sal, na.rm = TRUE),
    doxy = mean(doxy, na.rm = TRUE),
    n = n() # this can be helpful to see how many measurements were averaged
  )
print(surf_lay, n = 5)

## # A tibble: 2,848 x 8
## # Groups:   cruise, station, date_time [?]
##   cruise station date_time           fmonth   temp   sal  doxy     n
##   <chr>  <chr>   <dttm>              <fct>   <dbl> <dbl> <dbl> <int>
## 1 ????   0247    2015-02-17 09:54:00 Feb      3.56  9.04  6.36     6
## 2 ????   0793    2015-06-12 08:15:00 Jun     12.2   7.63  5.40     7
## 3 ????   1133    2015-08-03 08:06:00 Aug    NaN     7.58  4.80     7
## 4 ????   1321    2015-08-20 10:37:00 Aug     17.6   8.31  4.51     6
## 5 ????   1383    2015-08-31 08:21:00 Aug     17.8   7.61  5.21     5
## # ... with 2,843 more rows
…
You don’t have to do anything about it, as we will aggregate over the samplings anyway omitting again NAs and NaNs.

# 2nd, we average over the samplings per station and month
surf_stat <- surf_lay %>%
  group_by(station, fmonth) %>% # now we removed cruise and date_time
  summarise(
    temp = mean(temp, na.rm = TRUE),
    sal = mean(sal, na.rm = TRUE),
    doxy = mean(doxy, na.rm = TRUE),
    n = n() # this can be helpful to see how many measurements were averaged
  )  
print(surf_stat, n = 5)

## # A tibble: 2,503 x 6
## # Groups:   station [?]
##   station fmonth  temp   sal   doxy     n
##   <chr>   <fct>  <dbl> <dbl>  <dbl> <int>
## 1 0001    Jan     2.91 6.28    8.61     3
## 2 0001    Mar     3.16 6.04    8.85     4
## 3 0001    April   3.94 6.55  NaN        1
## 4 0001    May     4.48 4.05    9.72     1
## 5 0001    Jul    22.5  0.550   4.34     1
## # ... with 2,498 more rows
…
bot_lay <- hydro %>%
  filter(depth > 30, pres >= (depth-10)) %>%
  # complete.cases returns a logical vector indicating which cases are complete
  mutate(comp_case = complete.cases(.$temp, .$sal, .$doxy)) %>%
  group_by(cruise, station, date_time, fmonth) %>%
  summarise(
    temp = mean(temp, na.rm = TRUE),
    sal = mean(sal, na.rm = TRUE),
    doxy = mean(doxy, na.rm = TRUE),
    n = n(),
    n_all3 = sum(comp_case)
  )
print(bot_lay, n = 5)

## # A tibble: 1,537 x 9
## # Groups:   cruise, station, date_time [?]
##   cruise station date_time           fmonth   temp   sal  doxy     n
##   <chr>  <chr>   <dttm>              <fct>   <dbl> <dbl> <dbl> <int>
## 1 ????   0247    2015-02-17 09:54:00 Feb      4.36  13.2 5.60      3
## 2 ????   0793    2015-06-12 08:15:00 Jun      6.99  19.0 1.45      5
## 3 ????   1133    2015-08-03 08:06:00 Aug    NaN     19.3 0.880     3
## 4 ????   1321    2015-08-20 10:37:00 Aug     10.2   10.6 2.96      4
## 5 ????   1383    2015-08-31 08:21:00 Aug      6.98  19.0 1.25      5
## # ... with 1,532 more rows, and 1 more variable: n_all3 <int>
…
