Lecture 7
…
So mainly April shows the greatest gaps (with a gap of 6 days, and twice of 4 days). Why could that be?

Solution: Q5 and Q6

Which depths are most frequently sampled?

What are the most common depth profiles taken? (Every 1 metre, every 5 metres?)

hydro %>%
 select(pres) %>%
 group_by(pres) %>%
 count() %>%
 arrange(desc(n)) %>% print(n=10)

## # A tibble: 1,193 x 2
## # Groups:   pres [1,193]
##     pres     n
##    <dbl> <int>
##  1     5  2319
##  2    10  2215
##  3    20  1792
##  4    15  1732
##  5    40  1603
##  6    30  1554
##  7     1  1552
##  8     0  1524
##  9    50  1244
## 10    25  1077
## # ... with 1,183 more rows

If you got the same result you probably noted, that the depth (or pres) values are not integers and the number of unique values is therefore very high (1,193). To reduce the numer of depth levels we could round them first. Instead of using the function round() I suggest using ceiling(), which rounds to the next higher integer (so that 0.4m is considered 1m):

hydro %>%
transmute(pres2 = ceiling(pres)) %>%
 group_by(pres2) %>%
 count() %>%
 arrange(desc(n)) %>% print(n=10)

## # A tibble: 216 x 2
## # Groups:   pres2 [216]
##    pres2     n
##    <dbl> <int>
##  1     5  2370
##  2    10  2232
##  3     1  1880
##  4    20  1797
##  5    15  1736
##  6    40  1609
##  7    30  1565
##  8     0  1524
##  9    50  1246
## 10    25  1083
## # ... with 206 more rows
…
Related to cruises?

hydro %>% 
 select(cruise, temp, psal, doxy) %>%
 group_by(cruise) %>%
 summarise(
  t_na = sum(is.na(temp)),
  s_na = sum(is.na(psal)),
  o_na = sum(is.na(doxy))
 ) %>%
 mutate(sum_na = t_na+s_na+o_na) %>%
 arrange(desc(sum_na)) %>%
  print(n = 20)

## # A tibble: 36 x 5
##    cruise  t_na  s_na  o_na sum_na
##    <chr>  <int> <int> <int>  <int>
##  1 67BC     127   147  2300   2574
##  2 ESSA     729   729   243   1701
##  3 3490     194   706   488   1388
##  4 26DA       0     2  1234   1236
##  5 34AR      17    17  1160   1194
##  6 77FY      39     0   490    529
##  7 67LL      92   272    92    456
##  8 ESLV     145   145   151    441
##  9 77K9       4     3   285    292
## 10 ESQT      59    59    89    207
## 11 7799      49    51   102    202
## 12 77LA       9     0   170    179
## 13 LTVJ      31    31    59    121
## 14 ????      42    22    40    104
## 15 6755      34    34    34    102
## 16 67TL      30    30    30     90
## 17 6799      19    19    51     89
## 18 77LT       0     0    83     83
## 19 672B      18    36    18     72
## 20 67VY      18    18    18     54
## # ... with 16 more rows
…
