Data Analysis with R
…
        Data analysis with R

    Your turn...

  Import the following dataset

library(tidyverse)
date_ex <- read_csv("data/date_time_examples.csv")
print(date_ex, n = 5)

## # A tibble: 10 x 8
##   date1 date2 date3 sampling_start_CET  sampling_end_UTC     year month
##   <chr> <chr> <chr> <dttm>              <dttm>              <int> <int>
## 1 11-0… 8.11… 8 No… 2017-11-08 09:54:00 2017-11-08 10:40:00  2017    11
## 2 11-0… 9.11… 9 No… 2017-11-09 08:15:00 2017-11-09 09:07:00  2017    11
## 3 11-1… 10.1… 10 N… 2017-11-10 08:06:00 2017-11-10 09:09:00  2017    11
## 4 11-1… 11.1… 11 N… 2017-11-11 10:37:00 2017-11-11 11:59:00  2017    11
## 5 11-1… 12.1… 12 N… 2017-11-12 08:21:00 2017-11-12 09:02:00  2017    11
## # ... with 5 more rows, and 1 more variable: day <int>
…
        Data analysis with R

    Devise a strategy for all days or months!

    Try to get something like this

## # A tibble: 223 x 4
##   month   day cruise_count station_count
##   <dbl> <int>        <int>         <int>
## 1     1    12            2             4
## 2     1    13            1             2
## 3     1    14            1             2
## 4     1    15            1             1
## 5     1    19            3             9
## 6     1    20            3             7
## 7     1    21            3             5
## # ... with 216 more rows
…
        Data analysis with R

    Complex data manipulations - Question 5 and 6

    Which depths are most frequently sampled?
What are the most common depth profiles taken? (Every 1 metre, every 5 metres?)

hydro %>%
 select(pres) %>%
 group_by(pres) %>%
 count() %>%
 arrange(desc(n)) %>% print(n=3)

## # A tibble: 1,193 x 2
## # Groups:   pres [1,193]
##    pres     n
##   <dbl> <int>
## 1     5  2319
## 2    10  2215
## 3    20  1792
## # ... with 1,190 more rows
…
        Data analysis with R

    Complex data manipulations - Q5 and 6 (cont)

    Which depths are most frequently sampled?
What are the most common depth profiles taken? (Every 1 metre, every 5 metres?)

hydro %>%
transmute(pres2 = ceiling(pres)) %>%
 group_by(pres2) %>%
 count() %>%
 arrange(desc(n)) %>% print(n=3)

## # A tibble: 216 x 2
## # Groups:   pres2 [216]
##   pres2     n
##   <dbl> <int>
## 1     5  2370
## 2    10  2232
## 3     1  1880
## # ... with 213 more rows
…
  Check if related to cruises

hydro %>% 
 select(cruise, temp, psal, doxy) %>%
 group_by(cruise) %>%
 summarise(
  t_na = sum(is.na(temp)),
  s_na = sum(is.na(psal)),
  o_na = sum(is.na(doxy))
 ) %>%
 mutate(sum_na = t_na+s_na+o_na) %>%
 arrange(desc(sum_na)) 

## # A tibble: 36 x 5
##    cruise  t_na  s_na  o_na sum_na
##    <chr>  <int> <int> <int>  <int>
##  1 67BC     127   147  2300   2574
##  2 ESSA     729   729   243   1701
##  3 3490     194   706   488   1388
##  4 26DA       0     2  1234   1236
##  5 34AR      17    17  1160   1194
##  6 77FY      39     0   490    529
##  7 67LL      92   272    92    456
##  8 ESLV     145   145   151    441
##  9 77K9       4     3   285    292
## 10 ESQT      59    59    89    207
## # ... with 26 more rows
…
