Data Analysis with R
…
        Data analysis with R

    2. Adding coordinates (cont)

    The merging can be done using the left_join() function from dpylr:   

cod15 <- left_join(cod15, sd_coord, 
  by = "Area") %>% print(n = 5)

## # A tibble: 88 x 5
##   Area  Age    CPUE   Lat  Long
##   <fct> <fct> <dbl> <dbl> <dbl>
## 1 21    0         0  57    11.5
## 2 22    0         0  55    11  
## 3 23    0         0  55.8  12.5
## 4 24    0         0  55    13.5
## 5 25    0         0  55.5  16  
## # ... with 83 more rows
…
